%YAML 1.1
%TAG !u! tag:unity3d.com,2011:
--- !u!114 &11400000
MonoBehaviour:
  m_ObjectHideFlags: 0
  m_CorrespondingSourceObject: {fileID: 0}
  m_PrefabInstance: {fileID: 0}
  m_PrefabAsset: {fileID: 0}
  m_GameObject: {fileID: 0}
  m_Enabled: 1
  m_EditorHideFlags: 0
  m_Script: {fileID: 11500000, guid: 8133228c6e9d4d3cae5393423179181a, type: 3}
  m_Name: SprintSound
  m_EditorClassIdentifier: 
  sensorType: 1
  priority: 4
  emissionValue: 30
  minDuration: 0.01
  maxDuration: 0.01
  minInterval: 0
  maxInterval: 0
  numberOfRepeats: 0
  baseGameObject: {fileID: 6662089810013610469, guid: 524c5bb0bf0114f41b390ecdf0fe378b,
    type: 3}
